﻿*** a9ab0d60c4bb64a6ae5b2b0bde5e0b25
## Language = Chinese
## Widgets
### Source
g
### Chinese ***
g

### Source
go
### Chinese ***
运行

### Source
k1
### Chinese ***
k1

### Source
k2
### Chinese ***
k2

### Source
max-state
### Chinese ***
最大状态

### Source
setup
### Chinese ***
设置

